Spaces
…
## # A tibble: 1 x 1
##   sum_tokens
##        <dbl>
## 1     192076

## # A tibble: 1 x 1
##   sum_tokens
##        <dbl>
## 1     425561

## # A tibble: 302 x 2
##    sender_id     n
##        <dbl> <int>
##  1      2225   286
##  2      2202   278
##  3      2075   274
##  4      2178   271
##  5      2167   211
##  6      2240   128
##  7      2268   120
##  8      2056   112
##  9      2173   102
## 10      2267   100
## #  with 292 more rows
…
